…
    ## See spec(...) for full column specifications.

    ## Warning: 656 parsing failures.
    ##  row                     col           expected actual                    file
    ## 5835 data_moderator_initials 1/0/T/F/TRUE/FALSE     SL 'raw-data/linelist.csv'
    ## 5836 data_moderator_initials 1/0/T/F/TRUE/FALSE     SL 'raw-data/linelist.csv'
    ## 5837 data_moderator_initials 1/0/T/F/TRUE/FALSE     SL 'raw-data/linelist.csv'
    ## 5838 data_moderator_initials 1/0/T/F/TRUE/FALSE     SL 'raw-data/linelist.csv'
    ## 5839 data_moderator_initials 1/0/T/F/TRUE/FALSE     SL 'raw-data/linelist.csv'
    ## .... ....................... .................. ...... .......................
    ## See problems(...) for more details.

    ## # A tibble: 14,619 x 6
    ##    country city       province date_confirmation travel_history_l… import_status
    ##    <chr>   <chr>      <chr>    <chr>             <chr>             <chr>        
    ##  1 China   Chaohu Ci… Anhui    22.01.2020        Wuhan             imported     
    ##  2 China   Baohe Dis… Anhui    23.01.2020        Luzhou Hunan, vi… imported     
    ##  3 China   High-Tech… Anhui    23.01.2020        Yinzhou Hunan, v… imported     
    ##  4 China   High-Tech… Anhui    23.01.2020        <NA>              local        
    ##  5 China   Feidong C… Anhui    23.01.2020        Wuhan             imported     
    ##  6 China   Lu'an City Anhui    24.01.2020        <NA>              local        
    ##  7 China   Fuyang Ci… Anhui    22.01.2020        Wuhan             imported     
    ##  8 China   Huaibei C… Anhui    25.01.2020        Wuhan             imported     
    ##  9 China   Huainan C… Anhui    26.01.2020        Wuhan             imported     
    ## 10 China   Hefei City Anhui    23.01.2020        Wuhan             imported     
    ## # … with 14,609 more rows
…
